Process and merge data
…
abs_words_tf_idf <- abs_words_T %>%
  #bind_tf_idf(tbl, term, document, n)
  bind_tf_idf(      word, title, n) %>% # 5860
  # get rid of stopwords anyway &...
  anti_join(stop_words, by = "word") %>% # 3703
  # fileter most importantly weighted 
  # filter(tf_idf > 0.01 ) %>% # 2278
  arrange(date_issued, desc(tf_idf))

abs_words_tf_idf

## # A tibble: 3,819 × 9
##    date_issued title              abstract word      n total     tf   idf tf_idf
##    <chr>       <chr>              <chr>    <chr> <int> <int>  <dbl> <dbl>  <dbl>
##  1 1978        Prospects for Gro… This fi… alle…     1    88 0.0114  3.78 0.0430
##  2 1978        Prospects for Gro… This fi… clar…     1    88 0.0114  3.78 0.0430
##  3 1978        Prospects for Gro… This fi… comp…     1    88 0.0114  3.78 0.0430
##  4 1978        Prospects for Gro… This fi… deals     1    88 0.0114  3.78 0.0430
##  5 1978        Prospects for Gro… This fi… inte…     1    88 0.0114  3.78 0.0430
##  6 1978        Prospects for Gro… This fi… link…     1    88 0.0114  3.78 0.0430
##  7 1978        Prospects for Gro… This fi… econ…     3    88 0.0341  1.22 0.0416
##  8 1978        Prospects for Gro… This fi… major     3    88 0.0341  1.22 0.0416
##  9 1978        Prospects for Gro… This fi… pros…     2    88 0.0227  1.59 0.0361
## 10 1978        Prospects for Gro… This fi… acce…     1    88 0.0114  3.09 0.0351
## # … with 3,809 more rows
…
The inverse document frequency will be a higher number for
words that occur in fewer of the documents in the collection.

Let’s look at terms with high tf-idf in WDRs.

abs_words_tf_idf %>%
  select(-total) %>%
  arrange(desc(tf_idf))

## # A tibble: 3,819 × 8
##    date_issued title                    abstract word      n     tf   idf tf_idf
##    <chr>       <chr>                    <chr>    <chr> <int>  <dbl> <dbl>  <dbl>
##  1 1998        " Knowledge for Develop… "This i… know…    14 0.0722  3.78 0.273 
##  2 2012        " Gender Equality and D… "The ma… gend…    13 0.0588  3.09 0.182 
##  3 2021        " Data for Better Lives" "Today’… data     17 0.0541  2.40 0.130 
##  4 2016        " Digital Dividends"     "The 20… anal…     2 0.0308  3.78 0.116 
##  5 2020        " Trading for Developme… "Global… gvcs      5 0.0298  3.78 0.113 
##  6 2012        " Gender Equality and D… "The ma… equa…     6 0.0271  3.78 0.103 
##  7 2008        " Agriculture for Devel… "The wo… agri…     8 0.0364  2.69 0.0977
##  8 2018        " Learning to Realize E… "Every … lear…     9 0.0359  2.69 0.0963
##  9 2016        " Digital Dividends"     "The 20… comp…     2 0.0308  3.09 0.0951
## 10 2016        " Digital Dividends"     "The 20… digi…     2 0.0308  3.09 0.0951
## # … with 3,809 more rows
…
— Word frequency plots

# let's eliminate stopwords 
abs_words2 <-  anti_join(x = abs_words_T, y = stop_words, by= "word" )  %>% 
  filter(n > 1) %>% 
 select(date_issued, title, word, n, total)

abs_words2 

## # A tibble: 631 × 5
##    date_issued title                                       word          n total
##    <chr>       <chr>                                       <chr>     <int> <int>
##  1 2021        " Data for Better Lives"                    data         17   314
##  2 2013        " Jobs"                                     jobs         15   407
##  3 1993        " Investing in Health"                      health       14   378
##  4 1998        " Knowledge for Development"                knowledge    14   194
##  5 2012        " Gender Equality and Development"          gender       13   221
##  6 2012        " Gender Equality and Development"          developm…    10   221
##  7 1999        " Entering the 21st Century"                developm…     9   249
##  8 2005        " A Better Investment Climate for Everyone" investme…     9   286
##  9 2018        " Learning to Realize Education's Promise"  learning      9   251
## 10 1992        " Development and the Environment"          developm…     8   196
## # … with 621 more rows
…
# separate words 
abs_2022_bigrams_sep <- abs_2022_bigrams %>% 
  count(bigram, sort = TRUE) %>%
  # since many are bigram with a stopword
  separate(bigram, c("word1", "word2"), sep = " ") %>% 
  filter(!word1 %in% stop_words$word) %>%
  filter(!word2 %in% stop_words$word)

# new bigram counts:
abs_2022_bigrams_sep_counts <- abs_2022_bigrams_sep %>% 
  count(word1, word2, sort = TRUE)

abs_2022_bigrams_sep_counts

## # A tibble: 35 × 3
##    word1       word2           n
##    <chr>       <chr>       <int>
##  1 19          based           1
##  2 2022        finance         1
##  3 affect      low             1
##  4 central     role            1
##  5 continued   access          1
##  6 covid       19              1
##  7 debt        management      1
##  8 debts       innovations     1
##  9 development report          1
## 10 economic    recovery        1
## # … with 25 more rows
…
