Process and merge data
…
abs_words_tf_idf <- abs_words_T %>%
  #bind_tf_idf(tbl, term, document, n)
  bind_tf_idf(      word, title, n) %>% # 5860
  # get rid of stopwords anyway &...
  anti_join(stop_words, by = "word") %>% # 3703
  # fileter most importantly weighted 
  # filter(tf_idf > 0.01 ) %>% # 2278
  arrange(date_issued, desc(tf_idf))

abs_words_tf_idf

## # A tibble: 3,726 × 9
##    date_issued title              abstract word      n total     tf   idf tf_idf
##          <dbl> <chr>              <chr>    <chr> <int> <int>  <dbl> <dbl>  <dbl>
##  1        1978 Prospects for Gro… This fi… clar…     1    88 0.0114 3.78  0.0430
##  2        1978 Prospects for Gro… This fi… link…     1    88 0.0114 3.78  0.0430
##  3        1978 Prospects for Gro… This fi… major     3    88 0.0341 1.15  0.0390
##  4        1978 Prospects for Gro… This fi… alle…     1    88 0.0114 3.09  0.0351
##  5        1978 Prospects for Gro… This fi… comp…     1    88 0.0114 3.09  0.0351
##  6        1978 Prospects for Gro… This fi… deal      1    88 0.0114 3.09  0.0351
##  7        1978 Prospects for Gro… This fi… inte…     1    88 0.0114 3.09  0.0351
##  8        1978 Prospects for Gro… This fi… econ…     3    88 0.0341 0.951 0.0324
##  9        1978 Prospects for Gro… This fi… pros…     2    88 0.0227 1.39  0.0315
## 10        1978 Prospects for Gro… This fi… back…     1    88 0.0114 2.69  0.0305
## # … with 3,716 more rows
…
— Word frequency histogram

# let's eliminate stopwords 
abs_words2 <-  anti_join(x = abs_words_T, y = stop_words, by= "word" )  %>% 
  filter(n > 1) %>% 
 select(date_issued, title, word, n, total)

abs_words2 

## # A tibble: 730 × 5
##    date_issued title                                           word      n total
##          <dbl> <chr>                                           <chr> <int> <int>
##  1        2013 " Jobs"                                         job      17   407
##  2        2021 " Data for Better Lives"                        data     17   314
##  3        2014 " Risk and Opportunity—Managing Risk for Devel… risk     16   465
##  4        1993 " Investing in Health"                          heal…    14   378
##  5        1998 " Knowledge for Development"                    know…    14   194
##  6        2012 " Gender Equality and Development"              gend…    13   221
##  7        2013 " Jobs"                                         ar       12   407
##  8        2008 " Agriculture for Development"                  agri…    11   220
##  9        2012 " Gender Equality and Development"              deve…    10   221
## 10        1999 " Entering the 21st Century"                    deve…     9   249
## # … with 720 more rows
…
What are specific words that get a high altmetric ? https://youtu.be/C69QyycHsgE

alt_title_words <-  title_words %>%
  # Count observations by group(ed words)
  add_count(word ) %>% 
  group_by(word) %>% 
  summarise(median_alt = median (altmetric),
            # compresses the scale and you go up by smaller increments 
            geometric_mean_alt = exp(mean(log(altmetric + 1))) -1,
            occurrences = n()) %>% 
  arrange(desc(median_alt))  
  
alt_title_words

## # A tibble: 78 × 4
##    word       median_alt geometric_mean_alt occurrences
##    <chr>           <dbl>              <dbl>       <int>
##  1 digit            3066               3066           1
##  2 dividend         3066               3066           1
##  3 education'       1577               1577           1
##  4 learn            1577               1577           1
##  5 promis           1577               1577           1
##  6 realiz           1577               1577           1
##  7 behavior          989                989           1
##  8 mind              989                989           1
##  9 societi           989                989           1
## 10 ag                792                792           1
## # … with 68 more rows
…
# new bigram counts:
abs_2022_bigrams_sep_counts <- abs_2022_bigrams_sep %>% 
  # Count observations by group
  count(word1, word2, sort = TRUE)

abs_2022_bigrams_sep_counts

## # A tibble: 31 × 3
##    word1     word2           n
##    <chr>     <chr>       <int>
##  1 19        based           1
##  2 affect    low             1
##  3 central   role            1
##  4 continued access          1
##  5 covid     19              1
##  6 debt      management      1
##  7 debts     innovations     1
##  8 economic  recovery        1
##  9 economic  risks           1
## 10 ensure    continued       1
## # … with 21 more rows
…
