Process and merge data - WDR abstracts
…
abs_words_tf_idf <- abs_words_T %>%
  #bind_tf_idf(tbl, term, document, n)
  bind_tf_idf(      word, title, n) %>% # 5860
  # get rid of stopwords anyway &...
  anti_join(stop_words, by = "word") %>% # 3703
  # fileter most importantly weighted 
  # filter(tf_idf > 0.01 ) %>% # 2278
  arrange(date_issued, desc(tf_idf))

abs_words_tf_idf

## # A tibble: 3,768 × 10
##       id date_issued title         abstr…¹ word      n total     tf   idf tf_idf
##    <dbl>       <dbl> <chr>         <chr>   <chr> <int> <int>  <dbl> <dbl>  <dbl>
##  1  5961        1978 Prospects fo… This f… alle…     1    88 0.0114  3.78 0.0430
##  2  5961        1978 Prospects fo… This f… clar…     1    88 0.0114  3.78 0.0430
##  3  5961        1978 Prospects fo… This f… comp…     1    88 0.0114  3.78 0.0430
##  4  5961        1978 Prospects fo… This f… deals     1    88 0.0114  3.78 0.0430
##  5  5961        1978 Prospects fo… This f… inte…     1    88 0.0114  3.78 0.0430
##  6  5961        1978 Prospects fo… This f… link…     1    88 0.0114  3.78 0.0430
##  7  5961        1978 Prospects fo… This f… econ…     3    88 0.0341  1.22 0.0416
##  8  5961        1978 Prospects fo… This f… major     3    88 0.0341  1.22 0.0416
##  9  5961        1978 Prospects fo… This f… pros…     2    88 0.0227  1.59 0.0361
## 10  5961        1978 Prospects fo… This f… acce…     1    88 0.0114  3.09 0.0351
## # … with 3,758 more rows, and abbreviated variable name ¹​abstract
…
— SILGE’s Plotting most frequent words (all abstractS) —————-

OKKIO n instead of n/total

# abs_words_T --> 5860

# let's eliminate stopwords 
abs_words2 <-  anti_join(x = abs_words_T, y = stop_words, by= "word" )  %>% 
  #filter(n > 1) %>% 
 select(date_issued, title, word, n, total)

abs_words2 #--> 3699

## # A tibble: 3,768 × 5
##    date_issued title                                       word          n total
##          <dbl> <chr>                                       <chr>     <int> <int>
##  1        2021 " Data for Better Lives"                    data         17   314
##  2        2013 " Jobs"                                     jobs         15   407
##  3        1993 " Investing in Health"                      health       14   378
##  4        1998 " Knowledge for Development"                knowledge    14   194
##  5        2012 " Gender Equality and Development"          gender       13   221
##  6        2012 " Gender Equality and Development"          developm…    10   221
##  7        1999 " Entering the 21st Century"                developm…     9   249
##  8        2005 " A Better Investment Climate for Everyone" investme…     9   286
##  9        2018 " Learning to Realize Education's Promise"  learning      9   251
## 10        1992 " Development and the Environment"          developm…     8   196
## # … with 3,758 more rows
…
Examine Zipf’s law for WDR’s abstracts with just a few lines of dplyr
functions. > The rank column here tells us the rank of each word
within the frequency table; the table was already ordered by n so we
could use row_number() to find the rank

freq_by_rank <- abs_words2 %>% 
  arrange(desc(n)) %>% # order by n... 
  group_by(title) %>% 
  mutate(rank = row_number(), # so this can act as the rank
         `term frequency` = n/total) %>% # term frequency
  ungroup()
freq_by_rank

## # A tibble: 3,768 × 7
##    date_issued title                             word      n total  rank term …¹
##          <dbl> <chr>                             <chr> <int> <int> <int>   <dbl>
##  1        2021 " Data for Better Lives"          data     17   314     1  0.0541
##  2        2013 " Jobs"                           jobs     15   407     1  0.0369
##  3        1993 " Investing in Health"            heal…    14   378     1  0.0370
##  4        1998 " Knowledge for Development"      know…    14   194     1  0.0722
##  5        2012 " Gender Equality and Developmen… gend…    13   221     1  0.0588
##  6        2012 " Gender Equality and Developmen… deve…    10   221     2  0.0452
##  7        1999 " Entering the 21st Century"      deve…     9   249     1  0.0361
##  8        2005 " A Better Investment Climate fo… inve…     9   286     1  0.0315
##  9        2018 " Learning to Realize Education'… lear…     9   251     1  0.0359
## 10        1992 " Development and the Environmen… deve…     8   196     1  0.0408
## # … with 3,758 more rows, and abbreviated variable name ¹​`term frequency`
…
If vertices is NULL, then the first two columns of df (e.g. word1 =
FROM & word2 = TO) are used as a symbolic edge list and additional
columns (e.g. n) as edge attributes/weight. The names of the attributes
are taken from the names of the columns.

Here, a graph can be constructed from the tidy object
bigrams_counts_clean since it has three variables.

library(igraph) # Network Analysis and Visualization
bigrams_counts_clean

## # A tibble: 1,593 × 3
##    word1       word2           n
##    <chr>       <chr>       <int>
##  1 developing  countries      46
##  2 world       development    40
##  3 economic    growth         16
##  4 annual      series         14
##  5 development issues         12
##  6 development indicators     11
##  7 income      countries      10
##  8 series      assessing      10
##  9 economic    development     9
## 10 poor        people          9
## # … with 1,583 more rows
…
widyr::pairwise_counts() counts the number of times each
pair of items (words) appear together within a group defined by
“feature” (section). > note it still returns a tidy data
frame, although the underlying computation took place in a matrix form
:

abs_section_words %>% 
  widyr::pairwise_count(item = word, feature = section, sort = TRUE) %>% 
# Since pairwise_count records both the counts of (word_A, word_B) and 
#(word_B, word_B), it does not matter we filter at item1 or item2
  filter(item1 == "developing")

## # A tibble: 1,588 × 3
##    item1      item2             n
##    <chr>      <chr>         <dbl>
##  1 developing development       8
##  2 developing countries         8
##  3 developing international     8
##  4 developing world             8
##  5 developing growth            8
##  6 developing policy            8
##  7 developing income            8
##  8 developing policies          8
##  9 developing economic          8
## 10 developing social            8
## # … with 1,578 more rows
…
n = length(keywords)
# set names for elements 
outputs_key <- outputs_key %>% 
  set_names(paste0("kwic_", keywords))

# get rid of empty output dfs in list  
outputs_key <- outputs_key[sapply(
  outputs_key, function(x) dim(x)[1]) > 0] # 4 left!
 
# -------------- print all 
# Modo 1 - walk + print -
walk(.x = outputs_key, .f = print)  

## # A tibble: 22 × 5
##     Year `WDR title`                                 pre           keyword post 
##    <dbl> <chr>                                       <chr>         <chr>   <chr>
##  1  1993 " Investing in Health"                      Indicators w… data    on s…
##  2  2005 " A Better Investment Climate for Everyone" issues the R… data    from…
##  3  2005 " A Better Investment Climate for Everyone" appendix of … data    for …
##  4  2006 " Equity and Development"                   issues the R… data    from…
##  5  2006 " Equity and Development"                   appendix of … data    for …
##  6  2021 " Data for Better Lives"                    Today's unpr… data    and …
##  7  2021 " Data for Better Lives"                    lives are si… data    revo…
##  8  2021 " Data for Better Lives"                    much of the … data    rema…
##  9  2021 " Data for Better Lives"                    value of dat… Data    coll…
## 10  2021 " Data for Better Lives"                    from misalig… data    syst…
## # … with 12 more rows
…
— Word-topic probabilities

The tidytext package uses broom::tidy for extracting the
per-topic-per-word probabilities, called β (“beta”), from the model.

NOTE: For each combination, the model computes the probability of
that term being generated from that topic.

# extract per-topic-per-word beta
abs_topics <- tidytext::tidy(abs_lda, matrix = "beta")
abs_topics # one-topic-per-term-per-row format

## # A tibble: 3,434 × 3
##    topic term          beta
##    <int> <chr>        <dbl>
##  1     1 data      8.33e- 3
##  2     2 data      1.16e- 3
##  3     1 jobs      4.42e-64
##  4     2 jobs      6.99e- 3
##  5     1 health    2.33e- 3
##  6     2 health    6.87e- 3
##  7     1 knowledge 4.01e-63
##  8     2 knowledge 5.43e- 3
##  9     1 gender    6.13e- 3
## 10     2 gender    4.30e-66
## # … with 3,424 more rows
…
beta_wide <- abs_topics %>%
  mutate(topic = paste0("topic", topic)) %>%
  pivot_wider(names_from = topic, values_from = beta) %>% 
  filter(topic1 > .001 | topic2 > .001) %>%
  mutate(log_ratio = log2(topic2 / topic1))
beta_wide

## # A tibble: 339 × 4
##    term             topic1   topic2  log_ratio
##    <chr>             <dbl>    <dbl>      <dbl>
##  1 data           8.33e- 3 1.16e- 3   -2.84   
##  2 jobs           4.42e-64 6.99e- 3  203.     
##  3 health         2.33e- 3 6.87e- 3    1.56   
##  4 knowledge      4.01e-63 5.43e- 3  200.     
##  5 gender         6.13e- 3 4.30e-66 -210.     
##  6 development    2.89e- 2 2.88e- 2   -0.00350
##  7 investment     9.21e- 4 4.23e- 3    2.20   
##  8 learning       4.34e- 3 4.27e- 4   -3.35   
##  9 infrastructure 4.82e- 3 7.76e- 4   -2.63   
## 10 transition     8.76e- 4 4.27e- 3    2.28   
## # … with 329 more rows
…
(ref:topiccap)

— Document-topic probabilities

Besides estimating each topic as a mixture of words, LDA also models
each document as a mixture of topics. We can examine the
per-document-per-topic probabilities, called \(\gamma\) (“gamma”), with the
matrix = "gamma" argument to tidy().

abs_documents <- tidy(abs_lda, matrix = "gamma")
abs_documents # 44 WDR x 2 topics = 88!

## # A tibble: 88 × 3
##    document topic    gamma
##    <chr>    <int>    <dbl>
##  1 2021         1 1.00    
##  2 2013         1 0.000299
##  3 1993         1 0.000272
##  4 1998         1 0.000561
##  5 2012         1 1.00    
##  6 1999         1 0.000431
##  7 2005         1 0.000377
##  8 2018         1 1.00    
##  9 1992         1 0.304   
## 10 1994         1 1.00    
## # … with 78 more rows
…
We can see that many of these documents were drawn from a mix of the
two topics, but that document 2014 was drawn
almost entirely from topic 1, having a \(\gamma\) from topic 2 close to zero. To
check this answer, we could tidy() the document-term matrix
(see Chapter @ref(tidy-dtm)) and check what the most common words in
that document were.

tidy(abs_words_dtm) %>%
  filter(document == 2014) %>%
  arrange(desc(count))

## # A tibble: 164 × 3
##    document term          count
##    <chr>    <chr>         <dbl>
##  1 2014     risk              8
##  2 2014     risks             8
##  3 2014     development       5
##  4 2014     social            5
##  5 2014     people            5
##  6 2014     management        4
##  7 2014     economic          3
##  8 2014     world             3
##  9 2014     potential         3
## 10 2014     international     3
## # … with 154 more rows
…
