Process and merge data
…
# ---- Load everything into the Global Environment
purrr::map(.x =  Rds_file_names,
           .f =  function(datasets_l){ # iterate through each file name
             # Assign a Value to a Name       
             assign(x = str_remove(datasets_l,# new value in GlobEnv
                                   ".Rds"), # Remove file extension 
                    # inputvalue in my folder to be assigned to x
                    value = readRDS(paste0("data/raw_data/projects/", datasets_l)),
                    # the environment to use
                    envir = .GlobalEnv)
           }
           )

## [[1]]
## # A tibble: 162 × 27
##    `Project Id` Region   Country Proje…¹ Proje…² Proje…³ Imple…⁴ Consu…⁵ Proje…⁶
##    <chr>        <chr>    <chr>   <chr>   <chr>   <lgl>   <lgl>   <lgl>   <chr>  
##  1 P009363      South A… People… Closed  REACTI… NA      NA      NA      https:…
##  2 P001880      Eastern… Republ… Closed  Coroma… NA      NA      NA      https:…
##  3 P010076      South A… Islami… Closed  Karach… NA      NA      NA      https:…
##  4 P009361      South A… People… Closed  Cereal… NA      NA      NA      https:…
##  5 P009364      South A… People… Closed  Techni… NA      NA      NA      https:…
##  6 P006257      Latin A… Federa… Closed  Agro I… NA      NA      NA      https:…
##  7 P001103      Western… Republ… Closed  Highwa… NA      NA      NA      https:…
##  8 P003338      East As… Republ… Closed  Inland… NA      NA      NA      https:…
##  9 P000681      Eastern… Federa… Closed  Educat… NA      NA      NA      https:…
## 10 P003339      East As… Republ… Closed  Railwa… NA      NA      NA      https:…
## # … with 152 more rows, 18 more variables: `Board Approval Date` <chr>,
## #   `Project Closing Date` <chr>, `Last Stage Reached` <lgl>,
## #   `Financing Type` <lgl>, `Current Project Cost` <lgl>,
## #   `IBRD Commitment` <lgl>, `IDA Commitment` <lgl>,
## #   `Total IDA and IBRD Commitment` <lgl>, `Grant Amount` <lgl>,
## #   Borrower <lgl>, `Lending Instrument` <chr>,
## #   `Environmental Assessment Category` <chr>, …
## 
## [[2]]
## # A tibble: 185 × 27
##    `Project Id` Region   Country Proje…¹ Proje…² Proje…³ Imple…⁴ Consu…⁵ Proje…⁶
##    <chr>        <chr>    <chr>   <chr>   <chr>   <lgl>   <lgl>   <lgl>   <chr>  
##  1 P000845      Western… Republ… Closed  Water … NA      NA      NA      https:…
##  2 P001104      Western… Republ… Closed  Oil Pa… NA      NA      NA      https:…
##  3 P008907      Europe … Republ… Closed  Elbist… NA      NA      NA      https:…
##  4 P000325      Western… Republ… Closed  Railwa… NA      NA      NA      https:…
##  5 P008691      Europe … Romania Closed  Tecuci… NA      NA      NA      https:…
##  6 P000131      Eastern… Republ… Closed  Botswa… NA      NA      NA      https:…
##  7 P007047      Latin A… Republ… Closed  Guayaq… NA      NA      NA      https:…
##  8 P000683      Eastern… Federa… Closed  Drough… NA      NA      NA      https:…
##  9 P000682      Eastern… Federa… Closed  Wolamo… NA      NA      NA      https:…
## 10 P002022      Western… Federa… Closed  Midwes… NA      NA      NA      https:…
## # … with 175 more rows, 18 more variables: `Board Approval Date` <chr>,
## #   `Project Closing Date` <chr>, `Last Stage Reached` <lgl>,
## #   `Financing Type` <lgl>, `Current Project Cost` <lgl>,
## #   `IBRD Commitment` <lgl>, `IDA Commitment` <lgl>,
## #   `Total IDA and IBRD Commitment` <lgl>, `Grant Amount` <lgl>,
## #   Borrower <lgl>, `Lending Instrument` <chr>,
## #   `Environmental Assessment Category` <chr>, …
## 
## [[3]]
## # A tibble: 195 × 27
##    `Project Id` Region   Country Proje…¹ Proje…² Proje…³ Imple…⁴ Consu…⁵ Proje…⁶
##    <chr>        <chr>    <chr>   <chr>   <chr>   <lgl>   <lgl>   <lgl>   <chr>  
##  1 P000251      Western… Burkin… Closed  Rural … NA      NA      NA      https:…
##  2 P007416      Latin A… Jamaica Closed  Kingst… NA      NA      NA      https:…
##  3 P004881      Middle … People… Closed  Indust… NA      NA      NA      https:…
##  4 P002564      Eastern… Republ… Closed  RAHAD … NA      NA      NA      https:…
##  5 P006739      Latin A… Republ… Closed  Cordob… NA      NA      NA      https:…
##  6 P001021      Western… Republ… Closed  Pineap… NA      NA      NA      https:…
##  7 P004880      Middle … People… Closed  Techni… NA      NA      NA      https:…
##  8 P010088      South A… Democr… Closed  Develo… NA      NA      NA      https:…
##  9 P005249      Middle … Hashem… Closed  Potash… NA      NA      NA      https:…
## 10 P000067      Western… Republ… Closed  Rural … NA      NA      NA      https:…
## # … with 185 more rows, 18 more variables: `Board Approval Date` <chr>,
## #   `Project Closing Date` <chr>, `Last Stage Reached` <lgl>,
## #   `Financing Type` <lgl>, `Current Project Cost` <lgl>,
## #   `IBRD Commitment` <lgl>, `IDA Commitment` <lgl>,
## #   `Total IDA and IBRD Commitment` <lgl>, `Grant Amount` <lgl>,
## #   Borrower <lgl>, `Lending Instrument` <chr>,
## #   `Environmental Assessment Category` <chr>, …
## 
## [[4]]
## # A tibble: 220 × 27
##    `Project Id` Region   Country Proje…¹ Proje…² Proje…³ Imple…⁴ Consu…⁵ Proje…⁶
##    <chr>        <chr>    <chr>   <chr>   <chr>   <lgl>   <lgl>   <lgl>   <chr>  
##  1 P010097      South A… Islami… Closed  Draina… NA      NA      NA      https:…
##  2 P006273      Latin A… Federa… Closed  Nutrit… NA      NA      NA      https:…
##  3 P002831      Western… Republ… Closed  INDUST… NA      NA      NA      https:…
##  4 P004243      East As… Malays… Closed  North … NA      NA      NA      https:…
##  5 P008624      Europe … Portug… Closed  Power … NA      NA      NA      https:…
##  6 P009310      South A… Islami… Closed  Livest… NA      NA      NA      https:…
##  7 P001114      Western… Republ… Closed  INDUST… NA      NA      NA      https:…
##  8 P005375      Middle … Kingdo… Closed  Sidi C… NA      NA      NA      https:…
##  9 P006274      Latin A… Federa… Closed  Northe… NA      NA      NA      https:…
## 10 P000848      Western… Republ… Closed  Upper … NA      NA      NA      https:…
## # … with 210 more rows, 18 more variables: `Board Approval Date` <chr>,
## #   `Project Closing Date` <chr>, `Last Stage Reached` <lgl>,
## #   `Financing Type` <lgl>, `Current Project Cost` <lgl>,
## #   `IBRD Commitment` <lgl>, `IDA Commitment` <lgl>,
## #   `Total IDA and IBRD Commitment` <lgl>, `Grant Amount` <lgl>,
## #   Borrower <lgl>, `Lending Instrument` <chr>,
## #   `Environmental Assessment Category` <chr>, …
## 
## [[5]]
## # A tibble: 230 × 27
##    `Project Id` Region   Country Proje…¹ Proje…² Proje…³ Imple…⁴ Consu…⁵ Proje…⁶
##    <chr>        <chr>    <chr>   <chr>   <chr>   <lgl>   <lgl>   <lgl>   <chr>  
##  1 P000335      Western… Republ… Closed  Rural … NA      NA      NA      https:…
##  2 P003764      East As… Republ… Closed  Popula… NA      NA      NA      https:…
##  3 P009721      South A… Republ… Closed  Bombay… NA      NA      NA      https:…
##  4 P009384      South A… People… Closed  PROGRA… NA      NA      NA      https:…
##  5 P002032      Western… Federa… Closed  Ayangb… NA      NA      NA      https:…
##  6 P009713      South A… Republ… Closed  Assam … NA      NA      NA      https:…
##  7 P007805      Latin A… Republ… Closed  Power … NA      NA      NA      https:…
##  8 P009175      Europe … Social… Closed  Power … NA      NA      NA      https:…
##  9 P009382      South A… People… Closed  Extens… NA      NA      NA      https:…
## 10 P004689      East As… Kingdo… Closed  Chao P… NA      NA      NA      https:…
## # … with 220 more rows, 18 more variables: `Board Approval Date` <chr>,
## #   `Project Closing Date` <chr>, `Last Stage Reached` <lgl>,
## #   `Financing Type` <lgl>, `Current Project Cost` <lgl>,
## #   `IBRD Commitment` <lgl>, `IDA Commitment` <lgl>,
## #   `Total IDA and IBRD Commitment` <lgl>, `Grant Amount` <lgl>,
## #   Borrower <lgl>, `Lending Instrument` <chr>,
## #   `Environmental Assessment Category` <chr>, …
## 
## [[6]]
## # A tibble: 235 × 27
##    `Project Id` Region   Country Proje…¹ Proje…² Proje…³ Imple…⁴ Consu…⁵ Proje…⁶
##    <chr>        <chr>    <chr>   <chr>   <chr>   <lgl>   <lgl>   <lgl>   <chr>  
##  1 P003772      East As… Republ… Closed  Nucleu… NA      NA      NA      https:…
##  2 P007189      Latin A… Republ… Closed  Chixoy… NA      NA      NA      https:…
##  3 P002574      Eastern… Republ… Closed  Agricu… NA      NA      NA      https:…
##  4 P002716      Eastern… United… Closed  Morogo… NA      NA      NA      https:…
##  5 P008920      Europe … Republ… Closed  Erdemi… NA      NA      NA      https:…
##  6 P005857      Middle … Republ… Closed  Water … NA      NA      NA      https:…
##  7 P008627      Europe … Portug… Closed  Agricu… NA      NA      NA      https:…
##  8 P005628      Middle … Republ… Closed  Rural … NA      NA      NA      https:…
##  9 P005012      Middle … Arab R… Closed  Urban … NA      NA      NA      https:…
## 10 P005769      Middle … Republ… Closed  Textil… NA      NA      NA      https:…
## # … with 225 more rows, 18 more variables: `Board Approval Date` <chr>,
## #   `Project Closing Date` <chr>, `Last Stage Reached` <lgl>,
## #   `Financing Type` <lgl>, `Current Project Cost` <lgl>,
## #   `IBRD Commitment` <lgl>, `IDA Commitment` <lgl>,
## #   `Total IDA and IBRD Commitment` <lgl>, `Grant Amount` <lgl>,
## #   Borrower <lgl>, `Lending Instrument` <chr>,
## #   `Environmental Assessment Category` <chr>, …
## 
## [[7]]
## # A tibble: 250 × 27
##    `Project Id` Region   Country Proje…¹ Proje…² Proje…³ Imple…⁴ Consu…⁵ Proje…⁶
##    <chr>        <chr>    <chr>   <chr>   <chr>   <lgl>   <lgl>   <lgl>   <chr>  
##  1 P002719      Eastern… United… Closed  Tangan… NA      NA      NA      https:…
##  2 P002835      Western… Republ… Closed  Coffee… NA      NA      NA      https:…
##  3 P005629      Middle … Republ… Closed  Fisher… NA      NA      NA      https:…
##  4 P008352      Europe … Republ… Closed  Cyprus… NA      NA      NA      https:…
##  5 P009396      South A… People… Closed  Fertil… NA      NA      NA      https:…
##  6 P010135      South A… Democr… Closed  Small … NA      NA      NA      https:…
##  7 P008924      Europe … Republ… Closed  Port R… NA      NA      NA      https:…
##  8 P001703      Western… Republ… Closed  Urban … NA      NA      NA      https:…
##  9 P006134      Latin A… Plurin… Closed  Nation… NA      NA      NA      https:…
## 10 P009748      South A… Republ… Closed  Thal F… NA      NA      NA      https:…
## # … with 240 more rows, 18 more variables: `Board Approval Date` <chr>,
## #   `Project Closing Date` <chr>, `Last Stage Reached` <lgl>,
## #   `Financing Type` <lgl>, `Current Project Cost` <lgl>,
## #   `IBRD Commitment` <lgl>, `IDA Commitment` <lgl>,
## #   `Total IDA and IBRD Commitment` <lgl>, `Grant Amount` <lgl>,
## #   Borrower <lgl>, `Lending Instrument` <chr>,
## #   `Environmental Assessment Category` <chr>, …
## 
## [[8]]
## # A tibble: 277 × 27
##    `Project Id` Region   Country Proje…¹ Proje…² Proje…³ Imple…⁴ Consu…⁵ Proje…⁶
##    <chr>        <chr>    <chr>   <chr>   <chr>   <lgl>   <lgl>   <lgl>   <chr>  
##  1 P010147      South A… Nepal   Closed  Mahaka… NA      NA      NA      https:…
##  2 P009406      South A… People… Closed  Educat… NA      NA      NA      https:…
##  3 P005026      Middle … Arab R… Closed  Power … NA      NA      NA      https:…
##  4 P009768      South A… Republ… Closed  Power … NA      NA      NA      https:…
##  5 P007967      Latin A… Republ… Closed  Bayova… NA      NA      NA      https:…
##  6 P007060      Latin A… Republ… Closed  Highwa… NA      NA      NA      https:…
##  7 P001272      Eastern… Republ… Closed  Fisher… NA      NA      NA      https:…
##  8 P008715      Europe … Romania Closed  Orchar… NA      NA      NA      https:…
##  9 P005860      Middle … Republ… Closed  Petrol… NA      NA      NA      https:…
## 10 P000179      Eastern… Republ… Closed  Sites … NA      NA      NA      https:…
## # … with 267 more rows, 18 more variables: `Board Approval Date` <chr>,
## #   `Project Closing Date` <chr>, `Last Stage Reached` <lgl>,
## #   `Financing Type` <lgl>, `Current Project Cost` <chr>,
## #   `IBRD Commitment` <lgl>, `IDA Commitment` <lgl>,
## #   `Total IDA and IBRD Commitment` <chr>, `Grant Amount` <lgl>,
## #   Borrower <lgl>, `Lending Instrument` <chr>,
## #   `Environmental Assessment Category` <chr>, …
## 
## [[9]]
## # A tibble: 250 × 27
##    `Project Id` Region   Country Proje…¹ Proje…² Proje…³ Imple…⁴ Consu…⁵ Proje…⁶
##    <chr>        <chr>    <chr>   <chr>   <chr>   <lgl>   <lgl>   <lgl>   <chr>  
##  1 P002048      Western… Federa… Closed  Agricu… NA      NA      NA      https:…
##  2 P004483      East As… Republ… Closed  Educat… NA      NA      NA      https:…
##  3 P001613      Eastern… Republ… Closed  Techni… NA      NA      NA      https:…
##  4 P001611      Eastern… Republ… Closed  Struct… NA      NA      NA      https:…
##  5 P007762      Latin A… Republ… Closed  Indust… NA      NA      NA      https:…
##  6 P000858      Western… Republ… Closed  Railwa… NA      NA      NA      https:…
##  7 P000078      Western… Republ… Closed  Cotono… NA      NA      NA      https:…
##  8 P002838      Western… Republ… Closed  Phosph… NA      NA      NA      https:…
##  9 P000352      Western… Republ… Closed  Techni… NA      NA      NA      https:…
## 10 P006991      Latin A… Domini… Closed  Cocoa … NA      NA      NA      https:…
## # … with 240 more rows, 18 more variables: `Board Approval Date` <chr>,
## #   `Project Closing Date` <chr>, `Last Stage Reached` <lgl>,
## #   `Financing Type` <lgl>, `Current Project Cost` <chr>,
## #   `IBRD Commitment` <lgl>, `IDA Commitment` <lgl>,
## #   `Total IDA and IBRD Commitment` <chr>, `Grant Amount` <lgl>,
## #   Borrower <lgl>, `Lending Instrument` <chr>,
## #   `Environmental Assessment Category` <chr>, …
## 
## [[10]]
## # A tibble: 250 × 27
##    `Project Id` Region   Country Proje…¹ Proje…² Proje…³ Imple…⁴ Consu…⁵ Proje…⁶
##    <chr>        <chr>    <chr>   <chr>   <chr>   <lgl>   <lgl>   <lgl>   <chr>  
##  1 P001132      Western… Republ… Closed  Petrol… NA      NA      NA      https:…
##  2 P000695      Eastern… Federa… Closed  Agricu… NA      NA      NA      https:…
##  3 P002841      Western… Republ… Closed  Techni… NA      NA      NA      https:…
##  4 P003035      Eastern… Democr… Closed  Societ… NA      NA      NA      https:…
##  5 P005865      Middle … Republ… Closed  Fisher… NA      NA      NA      https:…
##  6 P001615      Eastern… Republ… Closed  Lilong… NA      NA      NA      https:…
##  7 P007431      Latin A… Jamaica Closed  Power … NA      NA      NA      https:…
##  8 P002738      Eastern… United… Closed  W/S MO… NA      NA      NA      https:…
##  9 P009785      South A… Republ… Closed  Irriga… NA      NA      NA      https:…
## 10 P010176      South A… Democr… Closed  Power … NA      NA      NA      https:…
## # … with 240 more rows, 18 more variables: `Board Approval Date` <chr>,
## #   `Project Closing Date` <chr>, `Last Stage Reached` <lgl>,
## #   `Financing Type` <lgl>, `Current Project Cost` <chr>,
## #   `IBRD Commitment` <lgl>, `IDA Commitment` <lgl>,
## #   `Total IDA and IBRD Commitment` <chr>, `Grant Amount` <lgl>,
## #   Borrower <lgl>, `Lending Instrument` <chr>,
## #   `Environmental Assessment Category` <chr>, …
## 
## [[11]]
## # A tibble: 251 × 27
##    `Project Id` Region   Country Proje…¹ Proje…² Proje…³ Imple…⁴ Consu…⁵ Proje…⁶
##    <chr>        <chr>    <chr>   <chr>   <chr>   <lgl>   <chr>   <lgl>   <chr>  
##  1 P000861      Western… Republ… Closed  Recons… NA      <NA>    NA      https:…
##  2 P009203      Europe … Social… Closed  Struct… NA      <NA>    NA      https:…
##  3 P008947      Europe … Republ… Closed  Thrace… NA      <NA>    NA      https:…
##  4 P007191      Latin A… Republ… Closed  Basic … NA      <NA>    NA      https:…
##  5 P004181      East As… Lao Pe… Closed  Agricu… NA      <NA>    NA      https:…
##  6 P009809      South A… Republ… Closed  Urban … NA      <NA>    NA      https:…
##  7 P005043      Middle … Arab R… Closed  Road M… NA      <NA>    NA      https:…
##  8 P001955      Western… Republ… Closed  Highwa… NA      <NA>    NA      https:…
##  9 P007575      Latin A… United… Closed  Small … NA      <NA>    NA      https:…
## 10 P001137      Western… Republ… Closed  Rubber… NA      <NA>    NA      https:…
## # … with 241 more rows, 18 more variables: `Board Approval Date` <chr>,
## #   `Project Closing Date` <chr>, `Last Stage Reached` <lgl>,
## #   `Financing Type` <lgl>, `Current Project Cost` <chr>,
## #   `IBRD Commitment` <lgl>, `IDA Commitment` <lgl>,
## #   `Total IDA and IBRD Commitment` <chr>, `Grant Amount` <lgl>,
## #   Borrower <lgl>, `Lending Instrument` <chr>,
## #   `Environmental Assessment Category` <chr>, …
## 
## [[12]]
## # A tibble: 249 × 27
##    `Project Id` Region   Country Proje…¹ Proje…² Proje…³ Imple…⁴ Consu…⁵ Proje…⁶
##    <chr>        <chr>    <chr>   <chr>   <chr>   <lgl>   <lgl>   <lgl>   <chr>  
##  1 P009205      Europe … Social… Closed  Fertil… NA      NA      NA      https:…
##  2 P002999      Western… Wester… Closed  Nangbe… NA      NA      NA      https:…
##  3 P005045      Middle … Arab R… Closed  Export… NA      NA      NA      https:…
##  4 P005046      Middle … Arab R… Closed  Small … NA      NA      NA      https:…
##  5 P005044      Middle … Arab R… Closed  Constr… NA      NA      NA      https:…
##  6 P005047      Middle … Arab R… Closed  POWER … NA      NA      NA      https:…
##  7 P004898      Middle … People… Closed  Algier… NA      NA      NA      https:…
##  8 P002589      Eastern… Republ… Closed  Sugar … NA      NA      NA      https:…
##  9 P005657      Middle … Republ… Closed  Power … NA      NA      NA      https:…
## 10 P006780      Latin A… Republ… Closed  Agricu… NA      NA      NA      https:…
## # … with 239 more rows, 18 more variables: `Board Approval Date` <chr>,
## #   `Project Closing Date` <chr>, `Last Stage Reached` <lgl>,
## #   `Financing Type` <lgl>, `Current Project Cost` <chr>,
## #   `IBRD Commitment` <lgl>, `IDA Commitment` <lgl>,
## #   `Total IDA and IBRD Commitment` <chr>, `Grant Amount` <lgl>,
## #   Borrower <lgl>, `Lending Instrument` <chr>,
## #   `Environmental Assessment Category` <chr>, …
## 
## [[13]]
## # A tibble: 240 × 27
##    `Project Id` Region   Country Proje…¹ Proje…² Proje…³ Imple…⁴ Consu…⁵ Proje…⁶
##    <chr>        <chr>    <chr>   <chr>   <chr>   <lgl>   <lgl>   <lgl>   <chr>  
##  1 P009212      Europe … Social… Closed  Petrol… NA      NA      NA      https:…
##  2 P001958      Western… Republ… Closed  Irriga… NA      NA      NA      https:…
##  3 P005949      Latin A… Argent… Closed  Gas Ut… NA      NA      NA      https:…
##  4 P006346      Latin A… Federa… Closed  Land T… NA      NA      NA      https:…
##  5 P005055      Middle … Arab R… Closed  Vocati… NA      NA      NA      https:…
##  6 P005412      Middle … Kingdo… Closed  Agricu… NA      NA      NA      https:…
##  7 P005874      Middle … Republ… Closed  Highwa… NA      NA      NA      https:…
##  8 P003365      East As… Republ… Closed  Timber… NA      NA      NA      https:…
##  9 P003364      East As… Republ… Closed  Seed D… NA      NA      NA      https:…
## 10 P002617      Eastern… Republ… Closed  Drough… NA      NA      NA      https:…
## # … with 230 more rows, 18 more variables: `Board Approval Date` <chr>,
## #   `Project Closing Date` <chr>, `Last Stage Reached` <lgl>,
## #   `Financing Type` <lgl>, `Current Project Cost` <chr>,
## #   `IBRD Commitment` <lgl>, `IDA Commitment` <lgl>,
## #   `Total IDA and IBRD Commitment` <chr>, `Grant Amount` <lgl>,
## #   Borrower <lgl>, `Lending Instrument` <chr>,
## #   `Environmental Assessment Category` <chr>, …
## 
## [[14]]
…
